sample-id,absolute-filepath,direction
MAO_1,/media/fernandez/3To/8_GitLab/metabarcoding/out/bioindic/its2/reads/joined/MAO_1.fastq,forward
MAO_2,/media/fernandez/3To/8_GitLab/metabarcoding/out/bioindic/its2/reads/joined/MAO_2.fastq,forward
MAO_3,/media/fernandez/3To/8_GitLab/metabarcoding/out/bioindic/its2/reads/joined/MAO_3.fastq,forward
MD_1,/media/fernandez/3To/8_GitLab/metabarcoding/out/bioindic/its2/reads/joined/MD_1.fastq,forward
MD_2,/media/fernandez/3To/8_GitLab/metabarcoding/out/bioindic/its2/reads/joined/MD_2.fastq,forward
MD_3,/media/fernandez/3To/8_GitLab/metabarcoding/out/bioindic/its2/reads/joined/MD_3.fastq,forward
